Introduction to R: Vectors, functions, data frames
…
This statement produces some output regarding which data type it found in each column. If we want to check this in more detail, we can print the variable’s value: surveys.

surveys

## # A tibble: 34,786 x 13
##    record_id month   day  year plot_id species_id sex   hindfoot_length
##        <dbl> <dbl> <dbl> <dbl>   <dbl> <chr>      <chr>           <dbl>
##  1         1     7    16  1977       2 NL         M                  32
##  2        72     8    19  1977       2 NL         M                  31
##  3       224     9    13  1977       2 NL         <NA>               NA
##  4       266    10    16  1977       2 NL         <NA>               NA
##  5       349    11    12  1977       2 NL         <NA>               NA
##  6       363    11    12  1977       2 NL         <NA>               NA
##  7       435    12    10  1977       2 NL         <NA>               NA
##  8       506     1     8  1978       2 NL         <NA>               NA
##  9       588     2    18  1978       2 NL         M                  NA
## 10       661     3    11  1978       2 NL         <NA>               NA
## # … with 34,776 more rows, and 5 more variables: weight <dbl>,
## #   genus <chr>, species <chr>, taxa <chr>, plot_type <chr>
…
## # A tibble: 1 x 1
##   record_id
##       <dbl>
## 1         1

surveys[1, 6]   # first element in the 6th column

## # A tibble: 1 x 1
##   species_id
##   <chr>     
## 1 NL

surveys[, 1]    # first column in the data frame

## # A tibble: 34,786 x 1
##    record_id
##        <dbl>
##  1         1
##  2        72
##  3       224
##  4       266
##  5       349
##  6       363
##  7       435
##  8       506
##  9       588
## 10       661
## # … with 34,776 more rows

surveys[1]      # first column in the data frame

## # A tibble: 34,786 x 1
##    record_id
##        <dbl>
##  1         1
##  2        72
##  3       224
##  4       266
##  5       349
##  6       363
##  7       435
##  8       506
##  9       588
## 10       661
## # … with 34,776 more rows
…
# We can test if all elements are the same
0:10 == seq(0,10)

##  [1] TRUE TRUE TRUE TRUE TRUE TRUE TRUE TRUE TRUE TRUE TRUE

all(0:10 == seq(0,10))

## [1] TRUE

You can also exclude certain parts of a data frame using the “-” sign:

surveys[,-1]    # All columns, except the first

## # A tibble: 34,786 x 12
##    month   day  year plot_id species_id sex   hindfoot_length weight genus
##    <dbl> <dbl> <dbl>   <dbl> <chr>      <chr>           <dbl>  <dbl> <chr>
##  1     7    16  1977       2 NL         M                  32     NA Neot…
##  2     8    19  1977       2 NL         M                  31     NA Neot…
##  3     9    13  1977       2 NL         <NA>               NA     NA Neot…
##  4    10    16  1977       2 NL         <NA>               NA     NA Neot…
##  5    11    12  1977       2 NL         <NA>               NA     NA Neot…
##  6    11    12  1977       2 NL         <NA>               NA     NA Neot…
##  7    12    10  1977       2 NL         <NA>               NA     NA Neot…
##  8     1     8  1978       2 NL         <NA>               NA     NA Neot…
##  9     2    18  1978       2 NL         M                  NA    218 Neot…
## 10     3    11  1978       2 NL         <NA>               NA     NA Neot…
## # … with 34,776 more rows, and 3 more variables: species <chr>,
## #   taxa <chr>, plot_type <chr>
…
As well as using numeric values to subset a data.frame (or matrix), columns can be called by name, using one of the four following notations: 

surveys["species_id"]       # Result is a data.frame

## # A tibble: 34,786 x 1
##    species_id
##    <chr>     
##  1 NL        
##  2 NL        
##  3 NL        
##  4 NL        
##  5 NL        
##  6 NL        
##  7 NL        
##  8 NL        
##  9 NL        
## 10 NL        
## # … with 34,776 more rows

surveys[, "species_id"]     # Result is a data.frame

## # A tibble: 34,786 x 1
##    species_id
##    <chr>     
##  1 NL        
##  2 NL        
##  3 NL        
##  4 NL        
##  5 NL        
##  6 NL        
##  7 NL        
##  8 NL        
##  9 NL        
## 10 NL        
## # … with 34,776 more rows
…
